<svg width="22" height="20" viewBox="0 0 22 20" fill="none" xmlns="http://www.w3.org/2000/svg">
<path fill-rule="evenodd" clip-rule="evenodd" d="M17.1727 16.25H6.12147C6.34326 16.6183 6.47059 17.0455 6.47059 17.5C6.47059 18.875 5.30585 20 3.88235 20C2.45886 20 1.29412 18.875 1.29412 17.5C1.29412 16.125 2.45886 15 3.88235 15C3.96308 15 4.04301 15.0036 4.12192 15.0107L5.17647 12.4375L3.94704 1.25H0V0H4.52941C4.85294 0 5.11178 0.250001 5.17647 0.562501L5.3876 2.5H21.3529C21.7412 2.5 22 2.75 22 3.125V9.375C22 9.6875 21.8059 9.9375 21.4823 10L6.28157 13.0589L5.5 15H19.4118C20.8353 15 22 16.125 22 17.5C22 18.875 20.8353 20 19.4118 20C17.9883 20 16.8235 18.875 16.8235 17.5C16.8235 17.0455 16.9509 16.6183 17.1727 16.25ZM6.39405 11.7351L20.7059 8.875V3.75H5.52385L6.39405 11.7351ZM18.1176 17.5C18.1176 16.8125 18.7 16.25 19.4118 16.25C20.1235 16.25 20.7059 16.8125 20.7059 17.5C20.7059 18.1875 20.1235 18.75 19.4118 18.75C18.7 18.75 18.1176 18.1875 18.1176 17.5ZM2.58824 17.5C2.58824 16.8125 3.1706 16.25 3.88235 16.25C4.5941 16.25 5.17647 16.8125 5.17647 17.5C5.17647 18.1875 4.5941 18.75 3.88235 18.75C3.1706 18.75 2.58824 18.1875 2.58824 17.5Z" fill="#3E3E3E"/>
</svg>
